{
  "project_info": {
    "project_number": "578087529742",
    "firebase_url": "https://pegadaiansyariahagen.firebaseio.com",
    "project_id": "pegadaiansyariahagen",
    "storage_bucket": "pegadaiansyariahagen.appspot.com"
  },
  "client": [
    {
      "client_info": {
        "mobilesdk_app_id": "1:578087529742:android:c3043d6b353725a4",
        "android_client_info": {
          "package_name": "id.co.pegadaian.syariah.agen"
        }
      },
      "oauth_client": [
        {
          "client_id": "578087529742-551s72e0ioai9ih1ksmlhaalok3kgtai.apps.googleusercontent.com",
          "client_type": 1,
          "android_info": {
            "package_name": "id.co.pegadaian.syariah.agen",
            "certificate_hash": "3fe638e225b9001051e2bdf1c2c0a7f10cc8a989"
          }
        },
        {
          "client_id": "578087529742-t00tp626q9ijvs41chh8te2l7eipmrrl.apps.googleusercontent.com",
          "client_type": 3
        }
      ],
      "api_key": [
        {
          "current_key": "AIzaSyD5XwGc3TrStKTV-wP1nvGk83P61g1mPHc"
        }
      ],
      "services": {
        "analytics_service": {
          "status": 1
        },
        "appinvite_service": {
          "status": 2,
          "other_platform_oauth_client": [
            {
              "client_id": "578087529742-t00tp626q9ijvs41chh8te2l7eipmrrl.apps.googleusercontent.com",
              "client_type": 3
            }
          ]
        },
        "ads_service": {
          "status": 2
        }
      }
    },
    {
      "client_info": {
        "mobilesdk_app_id": "1:578087529742:android:117270ff2495b07e",
        "android_client_info": {
          "package_name": "co.pegadaian.syariah.agen"
        }
      },
      "oauth_client": [
        {
          "client_id": "578087529742-2aa1va7g3emhq5irpal2ofj038b486mb.apps.googleusercontent.com",
          "client_type": 1,
          "android_info": {
            "package_name": "co.pegadaian.syariah.agen",
            "certificate_hash": "3fe638e225b9001051e2bdf1c2c0a7f10cc8a989"
          }
        },
        {
          "client_id": "578087529742-t00tp626q9ijvs41chh8te2l7eipmrrl.apps.googleusercontent.com",
          "client_type": 3
        }
      ],
      "api_key": [
        {
          "current_key": "AIzaSyD5XwGc3TrStKTV-wP1nvGk83P61g1mPHc"
        }
      ],
      "services": {
        "analytics_service": {
          "status": 1
        },
        "appinvite_service": {
          "status": 2,
          "other_platform_oauth_client": [
            {
              "client_id": "578087529742-t00tp626q9ijvs41chh8te2l7eipmrrl.apps.googleusercontent.com",
              "client_type": 3
            }
          ]
        },
        "ads_service": {
          "status": 2
        }
      }
    }
  ],
  "configuration_version": "1"
}